[
  {  
    "title": "Hoken",
    "description": "Formado por 3 empresas, Hoken International Company, Hai Franchising e Brasil Service e atualmente em todo o Brasil, Paraguai, Portugual e Espanha, Grupo Hokense consolidou como um dos mais sólifdos grupos econômicos do país. Ocupa a posição de destaque nas áreas de pesquisa e desenvolvimento de aparelhos e acessórios para tratamento de água, franchising, vendas diretas e treinamento. Sediado em São José do Rio Preto,SP, O grupo gera mais de 100 empregos diretos e 200 indiretos. Além disso, possui mais de 150 Franqueados.",
    "image": "images/ab.jpg",
    "descriptionImage": "Estoque de produtos em São José do Rio Preto"
  }
]



