{
  "title": "Produtos Hoken",
  "description": "A Hoken possui a mais completa linha de aparelhos para tratamento de água desenvolvidos com alta tecnologia e sob rigido controle de qualidade. Mais saúde e qualidade de vida para você e toda a sua familia."
}



