[
  {  
    "image": "images/g8.jpg",
    "title": "HK 4004",
    "description":"Água Quente"
  },
  {  
    "image": "images/fundo-agua.jpg",
    "title": "HK 4003",
    "description":"Gelada e Natural"
  },
  {  
    "image": "images/g4.jpg",
    "title": "HK 4004",
    "description":"Água Quente"
  },
  {  
    "image": "images/g8.jpg",
    "title": "HK 4003",
    "description":"Gelada e Natural"
  },
  {  
    "image": "images/g4.jpg",
    "title": "HK 4004",
    "description":"Água Quente"
  },
  {  
    "image": "images/fundo-agua.jpg",
    "title": "HK 4003",
    "description":"Gelada e Natural"
  }
]



