[
  {  
    "title": "Sakai CX",
    "subtitle": "Água Gelada e Natural",
    "image": "images/ab2.jpg",
    "description":"O maior compromisso de uma empresa é com seus clientes. Para a Hoken, este é mais que um compromisso, é um grande desafio: melhorar,cada vez mais, seu relacionamento com seus Parceiros, Consumidores, Distribuidores e Fraqueados.",
    "informations": [
      {
        "title":"Informações e Características",
        "description": "O maior compromisso de uma empresa é com seus clientes. Para a Hoken, este é mais que um compromisso, é um grande desafio: melhorar,cada vez mais, seu relacionamento com seus Parceiros, Consumidores, Distribuidores e Fraqueados."
      }
    ],
    "especifications": [
      {
        "title":"Nome do modelo",
        "description": "Sankai CX"
      },{
        "title":"Volume do tanque de água gelada",
        "description": "2.0l"
      },{
        "title":"Volume do tanque de água natural",
        "description": "(Alimentação direta)"
      },{
        "title":"Método de filtragem",
        "description": "Mecânica (Polipropileno) Adsorção (Carbomax)"
      }
    ],
    "shortDescription": "O Sankai CX é um produto moderno e ideal para a utilização em residências, comércio e empresas oferecebdi água gelada e natural de alta qualidade.",
    "itens": [
      {
        "description": "Água saudavável 24h por dia"
      },{
        "description": "Água livre de impurezas sólidas e líquidas"
      },{
        "description": "Volume do tanque de água gelada 2.0L"
      },{
        "description": "Capacidade de refrigeração 0,60 l/h"
      },{
        "description": "Água gelada na temperatura de até 5°C"
      }
    ],
    "process": [
      {
        "title": "Processo de Filtragem e purificação em 2 estágios",
        "image": "images/g3.jpg",
        "textOne": "1 - Pré-filtro de polipropileno(PP): Retenção de particulas sólidas, turbidez, sendimentos e cor.",
        "textTwo": "2 - CARBOMAX: Inibe a proliferação de fungos e bactérias.",
        "chars": [
          {
            "description":"Água saudavável 24h por dia"
          },{
            "description":"Água livre de impurezas sólidas e líquidas"
          },{
            "description":"Volume do tanque de água gelada 2.0L"
          },{
            "description":"Capacidade de refrigeração 0,60 l/h"
          },{
            "description":"Água gelada na temperatura de até 5°C"
          }
        ]
      }
    ]
  }
]



